Creation, fusion et manipulation
…
Utiliser la fonction across() pour une application sur plusieurs variables

Produits|>group_by(Annee,Pays)|>summarise(across(c(Prix, Quantite, Valeur),\(x)min(x)), .groups = "drop")

# A tibble: 224 × 5
   Annee Pays           Prix Quantite Valeur
   <dbl> <chr>         <dbl>    <dbl>  <dbl>
 1  1996 Cameroun         21       86  6681.
 2  1996 Canada           20      154  5941.
 3  1996 Chine            20      354 10854.
 4  1996 Côte d'ivoire    21      182  9681.
 5  1996 Inde             21      163  4974.
 6  1996 Mexique          23      132  3009.
 7  1996 Togo             23        9   302.
 8  1996 USA              25      179 11077.
 9  1997 Cameroun         20      178 11433.
10  1997 Canada           20       81  4575.
# ℹ 214 more rows

Utiliser la fonction across() avec une liste de fonctions

Produits|>group_by(Annee,Pays)|>summarise(across(c(Prix, Quantite, Valeur),list(min=min, max=max, mean=mean)),.groups = "drop")

# A tibble: 224 × 11
   Annee Pays          Prix_min Prix_max Prix_mean Quantite_min Quantite_max
   <dbl> <chr>            <dbl>    <dbl>     <dbl>        <dbl>        <dbl>
 1  1996 Cameroun            21       99      61.4           86         9913
 2  1996 Canada              20       98      57.7          154         9375
 3  1996 Chine               20       98      55.4          354         9270
 4  1996 Côte d'ivoire       21       99      65.2          182         9957
 5  1996 Inde                21       99      53.4          163         9614
 6  1996 Mexique             23      100      61.2          132         9846
 7  1996 Togo                23       99      57.4            9         8837
 8  1996 USA                 25       97      61.6          179         9791
 9  1997 Cameroun            20      100      62.1          178         9946
10  1997 Canada              20       99      65.5           81         9772
# ℹ 214 more rows
# ℹ 4 more variables: Quantite_mean <dbl>, Valeur_min <dbl>, Valeur_max <dbl>,
#   Valeur_mean <dbl>
…
anti_join() La fonction anti_join() de retenir uniquement les observations de A qui ne sont pas dans B.

Remodeler les données : gather() et spread()

spread() permet de créer de variables à partir d’une colonne clé et d’une colonne valeur.

Produits_Agg<-Produits|>
              group_by(Annee, Pays)|>
              summarise(Valeur=sum(Valeur), .groups="drop")

(Produits_court<-Produits_Agg|>
          spread(key=Pays, value=Valeur))

# A tibble: 28 × 9
   Annee  Cameroun    Canada  Chine `Côte d'ivoire`   Inde Mexique   Togo    USA
   <dbl>     <dbl>     <dbl>  <dbl>           <dbl>  <dbl>   <dbl>  <dbl>  <dbl>
 1  1996 10766168. 14105510. 1.19e7       21234381. 1.42e7  1.15e7 9.15e6 1.37e7
 2  1997 14662885. 11541927. 1.40e7       15793027. 1.71e7  1.54e7 7.24e6 1.39e7
 3  1998  9382640. 14095486. 1.71e7       17538154. 1.51e7  8.40e6 1.12e7 1.10e7
 4  1999 11691493. 13602121. 1.23e7       16060310. 1.06e7  1.43e7 1.08e7 1.56e7
 5  2000 12700349. 13877628. 1.95e7       10826477. 1.16e7  1.57e7 8.95e6 1.52e7
 6  2001 12797004. 14488223. 1.31e7       16095095. 1.12e7  1.62e7 1.07e7 9.01e6
 7  2002 11880047. 15181935. 1.44e7       16124581. 1.39e7  1.43e7 1.56e7 1.31e7
 8  2003 12477949.  9706718. 1.21e7       15775635. 1.13e7  1.72e7 1.21e7 1.66e7
 9  2004  8925461. 13422328. 1.21e7       11366224. 1.53e7  1.38e7 1.49e7 1.81e7
10  2005 11814168. 10761638. 1.52e7       12845589. 1.03e7  1.39e7 2.06e7 1.28e7
# ℹ 18 more rows

gather() prend plusieurs colonnes et le transforme en deux colonnes de clé-valeur

(Products_long<-Produits_court|>gather(key="Pays", 
                                              value="valeur",
                                              -Annee))

# A tibble: 224 × 3
   Annee Pays        valeur
   <dbl> <chr>        <dbl>
 1  1996 Cameroun 10766168.
 2  1997 Cameroun 14662885.
 3  1998 Cameroun  9382640.
 4  1999 Cameroun 11691493.
 5  2000 Cameroun 12700349.
 6  2001 Cameroun 12797004.
 7  2002 Cameroun 11880047.
 8  2003 Cameroun 12477949.
 9  2004 Cameroun  8925461.
10  2005 Cameroun 11814168.
# ℹ 214 more rows

L’utilisation de pivot_longer() et de pivot_wider()

pivot_longer() et pivot_wider() fonctionnent exactement comme gather et spread()

(Products_Pays_long<-Produits_court|>pivot_longer(!Annee, names_to="Pays", values_to="Valeur"))

# A tibble: 224 × 3
   Annee Pays             Valeur
   <dbl> <chr>             <dbl>
 1  1996 Cameroun      10766168.
 2  1996 Canada        14105510.
 3  1996 Chine         11856274.
 4  1996 Côte d'ivoire 21234381.
 5  1996 Inde          14152636.
 6  1996 Mexique       11506933.
 7  1996 Togo           9145886.
 8  1996 USA           13740810.
 9  1997 Cameroun      14662885.
10  1997 Canada        11541927.
# ℹ 214 more rows

(Products_Pays_wide<-Products_Pays_long|>pivot_wider(names_from=Pays, values_from=Valeur))

# A tibble: 28 × 9
   Annee  Cameroun    Canada  Chine `Côte d'ivoire`   Inde Mexique   Togo    USA
   <dbl>     <dbl>     <dbl>  <dbl>           <dbl>  <dbl>   <dbl>  <dbl>  <dbl>
 1  1996 10766168. 14105510. 1.19e7       21234381. 1.42e7  1.15e7 9.15e6 1.37e7
 2  1997 14662885. 11541927. 1.40e7       15793027. 1.71e7  1.54e7 7.24e6 1.39e7
 3  1998  9382640. 14095486. 1.71e7       17538154. 1.51e7  8.40e6 1.12e7 1.10e7
 4  1999 11691493. 13602121. 1.23e7       16060310. 1.06e7  1.43e7 1.08e7 1.56e7
 5  2000 12700349. 13877628. 1.95e7       10826477. 1.16e7  1.57e7 8.95e6 1.52e7
 6  2001 12797004. 14488223. 1.31e7       16095095. 1.12e7  1.62e7 1.07e7 9.01e6
 7  2002 11880047. 15181935. 1.44e7       16124581. 1.39e7  1.43e7 1.56e7 1.31e7
 8  2003 12477949.  9706718. 1.21e7       15775635. 1.13e7  1.72e7 1.21e7 1.66e7
 9  2004  8925461. 13422328. 1.21e7       11366224. 1.53e7  1.38e7 1.49e7 1.81e7
10  2005 11814168. 10761638. 1.52e7       12845589. 1.03e7  1.39e7 2.06e7 1.28e7
# ℹ 18 more rows
…
